[gd_scene load_steps=4 format=2]

[ext_resource path="res://Assets/Cannon/cannonBall.png" type="Texture" id=1]
[ext_resource path="res://Assets/Cannon/Bullet.cs" type="Script" id=2]

[sub_resource type="RectangleShape2D" id=1]
extents = Vector2( 3, 3 )

[node name="Bullet" type="Area2D"]
script = ExtResource( 2 )

[node name="Sprite" type="Sprite" parent="."]
texture = ExtResource( 1 )

[node name="body" type="CollisionShape2D" parent="."]
shape = SubResource( 1 )

[node name="lifeTimer" type="Timer" parent="."]
wait_time = 5.0
one_shot = true
autostart = true
[connection signal="body_entered" from="." to="." method="_on_Bullet_body_entered"]
[connection signal="timeout" from="lifeTimer" to="." method="_on_lifeTimer_timeout"]
