[gd_scene load_steps=3 format=2]

[ext_resource path="res://Assets/Cannon/cannonMobile.png" type="Texture" id=1]
[ext_resource path="res://Assets/Cannon/Cannon.cs" type="Script" id=2]

[node name="Cannon" type="Node2D"]
script = ExtResource( 2 )

[node name="Sprite" type="Sprite" parent="."]
texture = ExtResource( 1 )
__meta__ = {
"_edit_lock_": true
}

[node name="SpawnPoint" type="Node2D" parent="."]
position = Vector2( 24, 0 )

[node name="ShotTimer" type="Timer" parent="."]
wait_time = 1.5
one_shot = true
autostart = true

[node name="VisibilityEnabler2D" type="VisibilityEnabler2D" parent="."]
position = Vector2( -2.27374e-13, -5.68434e-14 )
scale = Vector2( 6.4, 6.4 )
process_parent = true
physics_process_parent = true
__meta__ = {
"_edit_lock_": true
}
[connection signal="timeout" from="ShotTimer" to="." method="_on_shotTimer_timeout"]
