[gd_scene load_steps=6 format=2]

[ext_resource path="res://Assets/EnemyShip/EnemyShip.png" type="Texture" id=1]
[ext_resource path="res://Assets/EnemyShip/EnemyShip.cs" type="Script" id=2]
[ext_resource path="res://Assets/EnemyShip/EnemyShipPath.cs" type="Script" id=3]

[sub_resource type="Curve2D" id=1]
_data = {
"points": PoolVector2Array( 0, 0, 0, 0, 0, 0, -23.8962, -18.044, 23.8962, 18.044, 112, 0, -11.2166, -19.5071, 11.2166, 19.5071, 160, 48, 36.5757, -17.5564, -36.5757, 17.5564, 160, 112, 0, 0, 0, 0, 112, 128, 16.0933, 8.77818, -16.0933, -8.77818, 0, 128, 6.82747, 6.3398, -6.82747, -6.3398, -64, 80, -3.90141, 6.82747, 3.90141, -6.82747, -64, 48, 0, 0, 0, 0, 0, 0 )
}

[sub_resource type="RectangleShape2D" id=2]
extents = Vector2( 13, 7 )

[node name="EnemyShipPath" type="Path2D"]
curve = SubResource( 1 )
script = ExtResource( 3 )

[node name="PathFollow2D" type="PathFollow2D" parent="."]
rotation = -0.190135

[node name="EnemyShip" type="Area2D" parent="PathFollow2D"]
rotation = 0.190135
script = ExtResource( 2 )

[node name="Sprite" type="Sprite" parent="PathFollow2D/EnemyShip"]
texture = ExtResource( 1 )

[node name="body" type="CollisionShape2D" parent="PathFollow2D/EnemyShip"]
shape = SubResource( 2 )
[connection signal="body_entered" from="PathFollow2D/EnemyShip" to="PathFollow2D/EnemyShip" method="_on_EnemyShip_body_entered"]
